<?xml version="1.0" standalone="no"?>
<!DOCTYPE svg PUBLIC "-//W3C//DTD SVG 20010904//EN"
 "http://www.w3.org/TR/2001/REC-SVG-20010904/DTD/svg10.dtd">
<svg version="1.0" xmlns="http://www.w3.org/2000/svg"
 width="200.000000pt" height="200.000000pt" viewBox="0 0 200.000000 200.000000"
 preserveAspectRatio="xMidYMid meet">
<metadata>
Created by potrace 1.10, written by Peter Selinger 2001-2011
</metadata>
<g transform="translate(0.000000,200.000000) scale(0.100000,-0.100000)"
fill="black" stroke="none">
<path d="M633 1652 c-199 -125 -364 -233 -367 -240 -4 -8 -4 -18 0 -23 3 -5
307 -9 734 -9 427 0 731 4 734 9 4 5 4 15 0 23 -4 10 -707 457 -732 465 -4 1
-170 -100 -369 -225z m718 -28 l332 -209 -341 -3 c-188 -1 -496 -1 -685 0
l-342 3 40 24 c22 14 42 28 45 31 3 4 12 9 20 12 8 4 139 85 290 182 151 96
283 173 292 171 9 -1 166 -97 349 -211z"/>
<path d="M410 1300 l0 -45 591 3 590 2 -3 40 -3 40 -588 3 -587 2 0 -45z
m1140 0 c0 -7 -192 -10 -555 -10 -363 0 -555 3 -555 10 0 7 192 10 555 10 363
0 555 -3 555 -10z"/>
<path d="M470 870 l0 -360 65 0 65 0 0 360 0 360 -65 0 -65 0 0 -360z m90 -5
l0 -325 -30 0 -30 0 0 325 0 325 30 0 30 0 0 -325z"/>
<path d="M780 870 l0 -360 65 0 65 0 0 360 0 360 -65 0 -65 0 0 -360z m90 -5
l0 -325 -30 0 -30 0 0 325 0 325 30 0 30 0 0 -325z"/>
<path d="M1090 870 l0 -360 65 0 65 0 0 360 0 360 -65 0 -65 0 0 -360z m100
-5 l0 -325 -35 0 -35 0 0 325 0 325 35 0 35 0 0 -325z"/>
<path d="M1405 870 l0 -360 63 0 62 0 0 360 0 360 -62 0 -63 0 0 -360z m95 -5
l0 -325 -30 0 -30 0 0 325 0 325 30 0 30 0 0 -325z"/>
<path d="M340 440 l0 -40 660 0 660 0 0 40 0 40 -660 0 -660 0 0 -40z m1290 0
c0 -7 -217 -10 -630 -10 -413 0 -630 3 -630 10 0 7 217 10 630 10 413 0 630
-3 630 -10z"/>
<path d="M260 340 l0 -40 740 0 740 0 0 40 0 40 -740 0 -740 0 0 -40z m1450 0
c0 -7 -243 -10 -710 -10 -467 0 -710 3 -710 10 0 7 243 10 710 10 467 0 710
-3 710 -10z"/>
<path d="M180 240 l0 -40 820 0 820 0 0 40 0 40 -820 0 -820 0 0 -40z m1600 0
c0 -7 -267 -10 -780 -10 -513 0 -780 3 -780 10 0 7 267 10 780 10 513 0 780
-3 780 -10z"/>
</g>
</svg>
